"Element ID";"Family";"Type"
"696238";"Pilastro Cappelle v1";"18"" x 18"""
"698051";"Pilastro Cappelle v1";"18"" x 18"""
"698070";"Pilastro Cappelle v1";"18"" x 18"""
"698074";"Pilastro Cappelle v1";"18"" x 18"""
"698078";"Pilastro Cappelle v1";"18"" x 18"""
"698082";"Pilastro Cappelle v1";"18"" x 18"""
"698086";"Pilastro Cappelle v1";"18"" x 18"""
"698127";"Pilastro Cappelle v1";"18"" x 18"""
"698981";"Pilastro Cappelle v1";"18"" x 18"""
"701930";"Pilastro Cappelle v1";"Pilstro Grande"
"703256";"Pilastro Cappelle v1";"18"" x 18"""
"720482";"Pilastro Laterale Singolo";"Pilastro Laterale Singolo"
"727424";"Pilastro Laterale Doppio";"Pilastro Laterale Doppio"
"727889";"Pilastro Laterale Doppio";"Pilastro Laterale Doppio"
"727901";"Pilastro Laterale Doppio";"Pilastro Laterale Doppio"
"727913";"Pilastro Laterale";"Pilastro Laterale"
"727923";"Pilastro Laterale Doppio";"Pilastro Laterale Doppio"
"727933";"Pilastro Laterale Doppio";"Pilastro Laterale Doppio"
"727947";"Pilastro Laterale Doppio";"Pilastro Laterale Doppio"
"727957";"Pilastro Laterale Doppio";"Pilastro Laterale Doppio"
"728803";"Pilastro Laterale Singolo";"Pilastro Laterale Singolo"
"734725";"Pilastro Cappelle v1";"18"" x 18"""
"734988";"Pilastro Laterale Singolo";"Pilastro Laterale Singolo"
"735469";"Pilastro Laterale Singolo";"Pilastro Laterale Singolo"
"739946";"Pilastro Cappelle v1";"18"" x 18"""
"739947";"Pilastro Laterale Singolo";"Pilastro Laterale Singolo"
"739948";"Pilastro Laterale Singolo";"Pilastro Laterale Singolo"
"740200";"Pilastro Cappelle v1";"18"" x 18"""
"740201";"Pilastro Laterale Singolo";"Pilastro Laterale Singolo"
"740202";"Pilastro Laterale Singolo";"Pilastro Laterale Singolo"
"740209";"Pilastro Cappelle v1";"18"" x 18"""
"740210";"Pilastro Laterale Singolo";"Pilastro Laterale Singolo"
"740211";"Pilastro Laterale Singolo";"Pilastro Laterale Singolo"
"740218";"Pilastro Cappelle v1";"18"" x 18"""
"740219";"Pilastro Laterale Singolo";"Pilastro Laterale Singolo"
"740220";"Pilastro Laterale Singolo";"Pilastro Laterale Singolo"
"740227";"Pilastro Cappelle v1";"18"" x 18"""
"740228";"Pilastro Laterale Singolo";"Pilastro Laterale Singolo"
"740229";"Pilastro Laterale Singolo";"Pilastro Laterale Singolo"
"740236";"Pilastro Cappelle v1";"18"" x 18"""
"740237";"Pilastro Laterale Singolo";"Pilastro Laterale Singolo"
"740238";"Pilastro Laterale Singolo";"Pilastro Laterale Singolo"
"740245";"Pilastro Cappelle v1";"18"" x 18"""
"740246";"Pilastro Laterale Singolo";"Pilastro Laterale Singolo"
"740247";"Pilastro Laterale Singolo";"Pilastro Laterale Singolo"
"740800";"Pilastro Cappelle v1";"18"" x 18"""
"742118";"Pilastro Laterale Singolo";"Pilastro Laterale Singolo"
"744322";"Pilastro Cappelle v1";"18"" x 18"""
"745266";"Pilastro Cappelle v1";"Pilstro Grande"
"751710";"Pilastro Cappelle v1";"18"" x 18"""
"751839";"Pilastro Cappelle v1";"18"" x 18"""
"902133";"Pilastro Laterale Singolo";"Pilastro Laterale Singolo"
"905502";"Colonna - Quadrante Singolo";"Colonna - Quadrante Singolo"
"906063";"Colonna - Quadrante Singolo";"Colonna - Quadrante Singolo"
"906398";"Colonna - Quadrante Singolo";"Colonna - Quadrante Singolo"
"906495";"Colonna - Quadrante Singolo";"Colonna - Quadrante Singolo"
